<?xml version="1.0" encoding="iso-8859-1"?>
<!DOCTYPE svg PUBLIC "-//W3C//DTD SVG 1.1//EN" "http://www.w3.org/Graphics/SVG/1.1/DTD/svg11.dtd">
<svg 
 version="1.1" xmlns="http://www.w3.org/2000/svg" xmlns:xlink="http://www.w3.org/1999/xlink" x="0px" y="0px" width="512px"
	 height="512px" viewBox="0 0 512 512" style="enable-background:new 0 0 512 512;" xml:space="preserve"
><g id="afcae5a789ccd549f9c6e2a2f806b5c5"><g></g><path style="display: inline; fill:#c6c6c6;" d="M230.453,256l187.365,187.365L349.683,511.5L162.317,324.135L94.183,256
		l68.135-68.135L349.683,0.5l68.135,68.135L230.453,256z"></path></g></svg>